[gd_scene load_steps=3 format=2]

[ext_resource path="res://Sprites/Tileset 2.png" type="Texture" id=1]

[sub_resource type="RectangleShape2D" id=1]
extents = Vector2( 4, 8 )

[node name="SpikeFloor" type="Node2D"]

[node name="Sprite" type="Sprite" parent="."]
texture = ExtResource( 1 )
region_enabled = true
region_rect = Rect2( 16, 0, 16, 16 )

[node name="Area2D" type="Area2D" parent="."]

[node name="CollisionShape2D" type="CollisionShape2D" parent="Area2D"]
position = Vector2( -2, 0 )
shape = SubResource( 1 )
