[gd_scene load_steps=5 format=2]

[ext_resource path="res://TitleScreen.gd" type="Script" id=1]
[ext_resource path="res://Fonts/larceny/LarcenyH1.tres" type="DynamicFont" id=2]
[ext_resource path="res://Fonts/larceny/Larceny.tres" type="DynamicFont" id=3]
[ext_resource path="res://Scenes/MenuButton.gd" type="Script" id=4]

[node name="TitleScreen" type="Control"]
anchor_right = 1.0
anchor_bottom = 1.0
script = ExtResource( 1 )
__meta__ = {
"_edit_use_anchors_": false
}

[node name="Menu" type="VBoxContainer" parent="."]
margin_left = 40.0
margin_top = 20.0
margin_right = 280.0
margin_bottom = 160.0
__meta__ = {
"_edit_use_anchors_": false
}

[node name="RichTextLabel" type="RichTextLabel" parent="Menu"]
margin_right = 240.0
margin_bottom = 29.0
custom_fonts/normal_font = ExtResource( 2 )
bbcode_enabled = true
bbcode_text = "[center]GAME TITLE[/center]"
text = "GAME TITLE"
fit_content_height = true

[node name="Buttons" type="Control" parent="Menu"]
margin_top = 33.0
margin_right = 240.0
margin_bottom = 140.0
size_flags_horizontal = 3
size_flags_vertical = 3

[node name="Play" type="Button" parent="Menu/Buttons"]
margin_left = 80.0
margin_top = 4.0
margin_right = 160.0
margin_bottom = 24.0
custom_fonts/font = ExtResource( 3 )
text = "PLAY"
script = ExtResource( 4 )
__meta__ = {
"_edit_use_anchors_": false
}
scene_to_load = "res://Scenes/Levels/Level1.tscn"

[node name="RichTextLabel" type="RichTextLabel" parent="Menu/Buttons/Play"]
visible = false
margin_top = 2.0
margin_right = 80.0
margin_bottom = 20.0
custom_fonts/normal_font = ExtResource( 3 )
bbcode_enabled = true
bbcode_text = "[center]play"
text = "play"
fit_content_height = true
__meta__ = {
"_edit_use_anchors_": false
}
