; Engine configuration file.
; It's best edited using the editor UI and not directly,
; since the parameters that go here are not all obvious.
;
; Format:
;   [section] ; section goes between []
;   param=value ; assign values to parameters

config_version=4

_global_script_classes=[ {
"base": "Resource",
"class": "LevelsList",
"language": "GDScript",
"path": "res://LevelsList.gd"
} ]
_global_script_class_icons={
"LevelsList": ""
}

[application]

config/name="Heart Platformer"
run/main_scene="res://Scenes/TitleScreen.tscn"
config/icon="res://icon.png"

[autoload]

Events="*res://Events.gd"
Game="*res://Game.gd"

[display]

window/size/width=320
window/size/height=180
window/size/test_width=1280
window/size/test_height=720
window/stretch/mode="2d"
window/stretch/aspect="keep"

[editor_plugins]

enabled=PoolStringArray( "tile_spawner" )

[rendering]

quality/2d/use_pixel_snap=true
environment/default_environment="res://default_env.tres"
quality/2d/gles2_use_nvidia_rect_flicker_workaround=true
