{
	"SpikeFloor": {
		 "scene": "res://Scenes/SpikeFloor.tscn"
	},
	"SpikeLeftWall": {
		 "scene": "res://Scenes/SpikeLeftWall.tscn"
	},
	"SpikeRightWall": {
		 "scene": "res://Scenes/SpikeRightWall.tscn"
	},
	"SpikeCeiling": {
		 "scene": "res://Scenes/SpikeCeiling.tscn"
	},
	"Coin1": {
		 "scene": "res://Scenes/Coin1.tscn"
	},
	"Slime": {
		 "scene": "res://Scenes/Slime.tscn"
	},
	"Squirrel": {
		 "scene": "res://Scenes/Squirrel.tscn"
	},
	"GoalSpawner": {
		 "scene": "res://Scenes/GoalSpawner.tscn"
	}
}
